Yiyang Shi - Text Mining Learning Guide
…
Since DTM objects and and tidy data frames are two incompactible objects, we cannot use tidy tools to analyze a DTM object. Tidytext package provides two functions that convert between these two formats:

tidy() turns a DTM to a tidy dataframe.

cast() turns a tidy one term per row dataframe to a matrix.

# DTM
# Install the package AssociatedPress before you run this code chunk
data("AssociatedPress", package = "topicmodels")

# tidying a DTM
ap_td <- tidy(AssociatedPress)
ap_td

# A tibble: 302,031 × 3
   document term       count
      <int> <chr>      <dbl>
 1        1 adding         1
 2        1 adult          2
 3        1 ago            1
 4        1 alcohol        1
 5        1 allegedly      1
 6        1 allen          1
 7        1 apparently     2
 8        1 appeared       1
 9        1 arrested       1
10        1 assault        1
# … with 302,021 more rows
…
Accessing the Jane Austin Books

original_books <- austen_books() %>%
  group_by(book) %>%
  mutate(linenumber = row_number(),
         chapter = cumsum(str_detect(text, 
                                     regex("^chapter [\\divxlc]",
                                           ignore_case = TRUE)))) %>%
  ungroup()

original_books

# A tibble: 73,422 × 4
   text                    book                linenumber chapter
   <chr>                   <fct>                    <int>   <int>
 1 "SENSE AND SENSIBILITY" Sense & Sensibility          1       0
 2 ""                      Sense & Sensibility          2       0
 3 "by Jane Austen"        Sense & Sensibility          3       0
 4 ""                      Sense & Sensibility          4       0
 5 "(1811)"                Sense & Sensibility          5       0
 6 ""                      Sense & Sensibility          6       0
 7 ""                      Sense & Sensibility          7       0
 8 ""                      Sense & Sensibility          8       0
 9 ""                      Sense & Sensibility          9       0
10 "CHAPTER 1"             Sense & Sensibility         10       1
# … with 73,412 more rows
…
We can use the tidytext dataset stop_words with an anti_join to remove common English words like “the”, “of”, and “to” which potentially not be fruitful in a sentiment analysis context.

tidy_books <- tidy_books %>%
  anti_join(stop_words)

Joining, by = "word"

Practice

Find the most common words in all the tidy_books books as a whole. Create a visualization via ggplot to show the most common words in Jane Austen books.

tidy_books

# A tibble: 217,609 × 4
   book                linenumber chapter word       
   <fct>                    <int>   <int> <chr>      
 1 Sense & Sensibility          1       0 sense      
 2 Sense & Sensibility          1       0 sensibility
 3 Sense & Sensibility          3       0 jane       
 4 Sense & Sensibility          3       0 austen     
 5 Sense & Sensibility          5       0 1811       
 6 Sense & Sensibility         10       1 chapter    
 7 Sense & Sensibility         10       1 1          
 8 Sense & Sensibility         13       1 family     
 9 Sense & Sensibility         13       1 dashwood   
10 Sense & Sensibility         13       1 settled    
# … with 217,599 more rows
…
What does this information tell you?

ANSWER:

Sentiment Analysis with tidy data

So what is sentiment analysis? Sentiment Analysis allows us to analyze the emotion in text programmatically. one of the more common ways to do this is to consider the text as a combination of its individual words and the sentiment content of the whole text as the sum of the sentiment content of the individual words.

How are sentiment lexicons created and validated? They are constructed either via crowdsourcing or by an individual which they was validated using crowdsourcing, restaurant or movie reviews, or Twitter data.

There are a few different lexicon databases that can be used to do sentiment analysis (read more here <>) but for this we will use the nrc lexicon.

get_sentiments("nrc")

# A tibble: 13,872 × 2
   word        sentiment
   <chr>       <chr>    
 1 abacus      trust    
 2 abandon     fear     
 3 abandon     negative 
 4 abandon     sadness  
 5 abandoned   anger    
 6 abandoned   fear     
 7 abandoned   negative 
 8 abandoned   sadness  
 9 abandonment anger    
10 abandonment fear     
# … with 13,862 more rows
…
nrc_joy <- get_sentiments("nrc") %>% 
  filter(sentiment == "joy")

tidy_books %>%
  filter(book == "Emma") %>%
  inner_join(nrc_joy) %>%
  count(word, sort = TRUE)

Joining, by = "word"

# A tibble: 301 × 2
   word          n
   <chr>     <int>
 1 good        359
 2 friend      166
 3 hope        143
 4 happy       125
 5 love        117
 6 deal         92
 7 found        92
 8 present      89
 9 kind         82
10 happiness    76
# … with 291 more rows
…
